A7 - Networks
…
top_dest_NY <- top_dest("New York")
top_dest_TX <- top_dest("Texas")
top_dest_CA <- top_dest("California")
top_dest_MD <- top_dest("Maryland")

Define Edges

edge <- do.call("rbind", list(top_dest_NY, top_dest_TX, top_dest_CA, top_dest_MD))
print(edge)

## # A tibble: 40 x 3
##    source   target         count
##    <chr>    <fct>          <dbl>
##  1 New York New Jersey     64810
##  2 New York Florida        63033
##  3 New York Pennsylvania   43048
##  4 New York California     34848
##  5 New York Connecticut    27361
##  6 New York North Carolina 25596
##  7 New York Massachusetts  19960
##  8 New York Texas          18925
##  9 New York Virginia       17983
## 10 New York South Carolina 12721
## # ... with 30 more rows
…
